…
## How to stem text in R

There have been many algorithms built for stemming words over the past half century or so; we'll focus on two approaches. \index{stemming algorithm!Porter}The first is the stemming algorithm of @Porter80, probably the most widely used stemmer for English. Porter himself released the algorithm implemented in the framework [Snowball](https://snowballstem.org/) with an open-source license; you can use it from R via the **SnowballC** package [@R-SnowballC]. (It has been extended to languages other than English as well.)


```r
library(SnowballC)

tidy_fir_tree %>%
  mutate(stem = wordStem(word)) %>%
  count(stem, sort = TRUE)
```

```
#> # A tibble: 570 x 2
#>    stem        n
#>    <chr>   <int>
#>  1 tree       88
#>  2 fir        34
#>  3 littl      23
#>  4 said       22
#>  5 stori      16
#>  6 thought    16
#>  7 branch     15
#>  8 on         15
#>  9 came       14
#> 10 know       14
#> # … with 560 more rows
```
…
\index{stemming algorithm!Porter}The Porter stemmer is an algorithm that starts with a word and ends up with a single stem, but that's not the only kind of stemmer out there. Another class of stemmer are dictionary-based stemmers. One such stemmer is the stemming algorithm of the [Hunspell](http://hunspell.github.io/) library.\index{stemming algorithm!Hunspell} The "Hun" in Hunspell stands for Hungarian; this set of NLP algorithms was originally written to handle Hungarian but has since been extended to handle many languages with compound words and complicated morphology.\index{language!Non-English} The Hunspell library is used mostly as a spell checker, but as part of identifying correct spellings, this library identifies word stems as well. You can use the Hunspell library from R via the **hunspell** [@R-hunspell] package.


```r
library(hunspell)

tidy_fir_tree %>%
  mutate(stem = hunspell_stem(word)) %>%
  unnest(stem) %>%
  count(stem, sort = TRUE)
```

```
#> # A tibble: 595 x 2
#>    stem       n
#>    <chr>  <int>
#>  1 tree      89
#>  2 fir       34
#>  3 little    23
#>  4 said      22
#>  5 story     16
#>  6 branch    15
#>  7 one       15
#>  8 came      14
#>  9 know      14
#> 10 now       14
#> # … with 585 more rows
```
…
```r
library(scotus)

tidy_scotus <- scotus_filtered %>%
  unnest_tokens(word, text) %>%
  anti_join(get_stopwords())

tidy_scotus %>%
  count(word, sort = TRUE)
```

```
#> # A tibble: 167,879 x 2
#>    word        n
#>    <chr>   <int>
#>  1 court  286448
#>  2 v      204176
#>  3 state  148320
#>  4 states 128160
#>  5 case   121439
#>  6 act    111033
#>  7 s.ct   108168
#>  8 u.s    106413
#>  9 upon   105069
#> 10 united 103267
#> # … with 167,869 more rows
```
…
It is possible to split tokens not only on white space but **also** on punctuation, using a regular expression (see Appendix \@ref(regexp)). 


```r
fir_tree_counts <- fir_tree %>%
  unnest_tokens(word, text, token = "regex", pattern = "\\s+|[[:punct:]]+") %>%
  anti_join(get_stopwords()) %>%
  mutate(stem = wordStem(word)) %>%
  count(stem, sort = TRUE)

fir_tree_counts
```

```
#> # A tibble: 572 x 2
#>    stem        n
#>    <chr>   <int>
#>  1 tree       89
#>  2 fir        34
#>  3 littl      23
#>  4 said       22
#>  5 stori      16
#>  6 thought    16
#>  7 branch     15
#>  8 on         15
#>  9 came       14
#> 10 know       14
#> # … with 562 more rows
```
…
