# Regression {#mlregression}

In this chapter, we will use machine learning to predict *continuous values* that are associated with text data. Like in all predictive modeling tasks, this chapter demonstrates how to use learning algorithms to find and model relationships between an outcome or target variable and other input features. What is unique about the focus of this book is that our features are created from text data following the techniques laid out in Chapters \@ref(language) through \@ref(embeddings), and what is unique about the focus of this particular chapter is that our outcome is numeric and continuous. For example, let's consider a sample of opinions from the United States Supreme Court, available in the **scotus** [@R-scotus] package.


```r
library(tidyverse)
library(scotus)

scotus_filtered %>%
  as_tibble()
```

```
#> # A tibble: 10,000 × 5
#>    year  case_name                  docket_number     id text                   
#>    <chr> <chr>                      <chr>          <dbl> <chr>                  
#>  1 1903  Clara Perry, Plff. In Err… 16             80304 "No. 16.\n State Repor…
#>  2 1987  West v. Conrail            85-1804        96216 "No. 85-1804.\n\n     …
#>  3 1957  Roth v. United States      582            89930 "Nos. 582, 61.\nNo. 61…
#>  4 1913  McDermott v. Wisconsin     Nos. 112 and … 82218 "Nos. 112 and 113.\nMr…
#>  5 1826  Wetzell v. Bussard         <NA>           52899 "Feb. 7th.\nThis cause…
#>  6 1900  Forsyth v. Vehmeyer        180            79609 "No. 180.\nMr. Edward …
#>  7 1871  Reed v. United States      <NA>           57846 "APPEAL and cross appe…
#>  8 1833  United States v. Mills     <NA>           53394 "CERTIFICATE of Divisi…
#>  9 1940  Puerto Rico v. Rubert Her… 582            87714 "No. 582.\nMr. Wm. Cat…
#> 10 1910  Williams v. First Nat. Ba… 130            81588 "No. 130.\nThe defenda…
#> # … with 9,990 more rows
```
…
We have successfully fit an SVM model to this data set of Supreme Court opinions. What does the result look like? We can access the fit using `pull_workflow_fit()`, and even `tidy()` the model coefficient results into a convenient dataframe format.


```r
svm_fit %>%
  pull_workflow_fit() %>%
  tidy() %>%
  arrange(-estimate)
```

```
#> # A tibble: 1,001 × 2
#>    term                  estimate
#>    <chr>                    <dbl>
#>  1 Bias                   1920.  
#>  2 tfidf_text_later          1.50
#>  3 tfidf_text_appeals        1.48
#>  4 tfidf_text_see            1.39
#>  5 tfidf_text_noted          1.38
#>  6 tfidf_text_example        1.27
#>  7 tfidf_text_petitioner     1.26
#>  8 tfidf_text_even           1.23
#>  9 tfidf_text_rather         1.21
#> 10 tfidf_text_including      1.13
#> # … with 991 more rows
```

The term `Bias` here means the same thing as an intercept. We see here what terms contribute to a Supreme Court opinion being written more recently, like "appeals" and "petitioner". 

What terms contribute to a Supreme Court opinion being written further in the past, for this first attempt at a model?


```r
svm_fit %>%
  pull_workflow_fit() %>%
  tidy() %>%
  arrange(estimate)
```

```
#> # A tibble: 1,001 × 2
#>    term                 estimate
#>    <chr>                   <dbl>
#>  1 tfidf_text_ought        -2.77
#>  2 tfidf_text_1st          -1.94
#>  3 tfidf_text_but          -1.63
#>  4 tfidf_text_same         -1.62
#>  5 tfidf_text_the          -1.57
#>  6 tfidf_text_therefore    -1.54
#>  7 tfidf_text_it           -1.46
#>  8 tfidf_text_which        -1.40
#>  9 tfidf_text_this         -1.39
#> 10 tfidf_text_be           -1.33
#> # … with 991 more rows
```
…
There isn't too much training data to start with for the earliest years, so we are unlikely to quickly gain insight from looking at the oldest opinions. However, what do the more recent opinions that were predicted inaccurately look like?


```r
scotus_bind %>%
  arrange(-year) %>%
  select(year, .pred, case_name, text)
```

```
#> # A tibble: 168 × 4
#>     year .pred case_name                                text                    
#>    <dbl> <dbl> <chr>                                    <chr>                   
#>  1  2009 2055. Nijhawan v. Holder                       "Supreme Court of Unite…
#>  2  2008 1957. Green v. Johnson                         "                 Cite …
#>  3  2008 1952. Dalehite v. United States                "Supreme Court of Unite…
#>  4  2008 1982. Preston v. Ferrer                        "Supreme Court of Unite…
#>  5  2007 1876. Quebec Bank of Toronto v. Hellman        "Supreme Court of Unite…
#>  6  2004 2035. Illinois v. Lidster                      "No. 02-1060.\nPolice s…
#>  7  2002 1969. Borgner v. Florida Board of Dentistry    "No. 02-165.\nCERTIORAR…
#>  8  2000 1974. Ohler v. United States                   "OHLERv.UNITED STATES\n…
#>  9  2000 1955. Bush v. Palm Beach County Canvassing Bd. "No. 00-836\nON WRIT OF…
#> 10  1999 1964. Dickinson v. Zurko                       "No. 98 377\nQ. TODD DI…
#> # … with 158 more rows
```
…
