…
## Kickstarter data {#kickstarter}

For all our chapters on deep learning, we will build binary classification models, much like we did in Chapter \@ref(mlclassification), but we will use neural networks instead of shallow learning models. As we discussed in the foreword to these deep learning chapters, much of the overall model process will look the same, but we will use a different kind of algorithm. We will use a data set of descriptions or "blurbs" for campaigns from the crowdfunding platform [Kickstarter](https://www.kickstarter.com/).


```r
library(tidyverse)

kickstarter <- read_csv("data/kickstarter.csv.gz")
kickstarter
```

```
#> # A tibble: 269,790 x 3
#>    blurb                                                        state created_at
#>    <chr>                                                        <dbl> <date>    
#>  1 Exploring paint and its place in a digital world.                0 2015-03-17
#>  2 Mike Fassio wants a side-by-side photo of me and Hazel eati…     0 2014-07-11
#>  3 I need your help to get a nice graphics tablet and Photosho…     0 2014-07-30
#>  4 I want to create a Nature Photograph Series of photos of wi…     0 2015-05-08
#>  5 I want to bring colour to the world in my own artistic skil…     0 2015-02-01
#>  6 We start from some lovely pictures made by us and we decide…     0 2015-11-18
#>  7 Help me raise money to get a drawing tablet                      0 2015-04-03
#>  8 I would like to share my art with the world and to do that …     0 2014-10-15
#>  9 Post Card don’t set out to simply decorate stories. Our goa…     0 2015-06-25
#> 10 My name is Siu Lon Liu and I am an illustrator seeking fund…     0 2014-07-19
#> # … with 269,780 more rows
```
…
Figure \@ref(fig:kickstartercharhist) shows that the distribution of characters per blurb is right-skewed, with two thresholds. Individuals creating campaigns don't have much space to make an impression, so most people choose to use most of it! There is an oddity in this chart, a steep drop somewhere between 130 and 140 with another threshold around 150 characters. Let's investigate to see if we can find the reason.

We can use `count()` to find the most common blurb length.


```r
kickstarter %>%
  count(nchar(blurb), sort = TRUE)
```

```
#> # A tibble: 151 x 2
#>    `nchar(blurb)`     n
#>             <int> <int>
#>  1            135 26827
#>  2            134 18726
#>  3            133 14913
#>  4            132 13559
#>  5            131 11322
#>  6            130 10083
#>  7            129  8786
#>  8            128  7874
#>  9            127  7239
#> 10            126  6590
#> # … with 141 more rows
```
…
<div class="rmdwarning">
<p>This function only works with binary classification models that take a preprocessed matrix as input and return a single probability for each observation. It returns both the predicted probability as well as the predicted class, using a 50% probability threshold.</p>
</div>

This function creates prediction results that seamlessly connect with tidymodels and **yardstick** functions.


```r
val_res <- keras_predict(dense_model, kick_assess, state_assess)
val_res
```

```
#> # A tibble: 50,522 x 3
#>      .pred_1 .pred_class state
#>        <dbl> <fct>       <fct>
#>  1 0.00101   0           0    
#>  2 0.000167  0           0    
#>  3 0.0139    0           0    
#>  4 0.00725   0           0    
#>  5 0.0237    0           0    
#>  6 1.00      1           0    
#>  7 0.000536  0           0    
#>  8 0.000308  0           0    
#>  9 0.000419  0           0    
#> 10 0.0000417 0           0    
#> # … with 50,512 more rows
```
…
We start by obtaining pre-trained embeddings. The GloVe embeddings that we used in Section \@ref(glove) are a good place to start. Setting `dimensions = 50` and only selecting the first 12 dimensions will make it easier for us to compare to our previous models directly.


```r
library(textdata)

glove6b <- embedding_glove6b(dimensions = 50) %>% select(1:13)
glove6b
```

```
#> # A tibble: 400,000 x 13
#>    token     d1      d2     d3      d4     d5      d6     d7      d8        d9
#>    <chr>  <dbl>   <dbl>  <dbl>   <dbl>  <dbl>   <dbl>  <dbl>   <dbl>     <dbl>
#>  1 "the" 0.418   0.250  -0.412  0.122  0.345  -0.0445 -0.497 -0.179  -0.000660
#>  2 ","   0.0134  0.237  -0.169  0.410  0.638   0.477  -0.429 -0.556  -0.364   
#>  3 "."   0.152   0.302  -0.168  0.177  0.317   0.340  -0.435 -0.311  -0.450   
#>  4 "of"  0.709   0.571  -0.472  0.180  0.544   0.726   0.182 -0.524   0.104   
#>  5 "to"  0.680  -0.0393  0.302 -0.178  0.430   0.0322 -0.414  0.132  -0.298   
#>  6 "and" 0.268   0.143  -0.279  0.0163 0.114   0.699  -0.513 -0.474  -0.331   
#>  7 "in"  0.330   0.250  -0.609  0.109  0.0364  0.151  -0.551 -0.0742 -0.0923  
#>  8 "a"   0.217   0.465  -0.468  0.101  1.01    0.748  -0.531 -0.263   0.168   
#>  9 "\""  0.258   0.456  -0.770 -0.377  0.593  -0.0635  0.205 -0.574  -0.290   
#> 10 "'s"  0.237   0.405  -0.205  0.588  0.655   0.329  -0.820 -0.232   0.274   
#> # … with 399,990 more rows, and 3 more variables: d10 <dbl>, d11 <dbl>,
#> #   d12 <dbl>
```
…
We see that the third step is the `sequence_onehot` step, so by setting `number = 3` we can extract the embedding vocabulary.


```r
tidy(kick_prep, number = 3)
```

```
#> # A tibble: 20,000 x 4
#>    terms vocabulary token id                   
#>    <chr>      <int> <chr> <chr>                
#>  1 blurb          1 0     sequence_onehot_TaBPG
#>  2 blurb          2 00    sequence_onehot_TaBPG
#>  3 blurb          3 000   sequence_onehot_TaBPG
#>  4 blurb          4 00pm  sequence_onehot_TaBPG
#>  5 blurb          5 01    sequence_onehot_TaBPG
#>  6 blurb          6 02    sequence_onehot_TaBPG
#>  7 blurb          7 03    sequence_onehot_TaBPG
#>  8 blurb          8 05    sequence_onehot_TaBPG
#>  9 blurb          9 06    sequence_onehot_TaBPG
#> 10 blurb         10 07    sequence_onehot_TaBPG
#> # … with 19,990 more rows
```
…
