…
## A first LSTM model {#firstlstm}

We will be using the same data from the previous chapter, described in Sections \@ref(kickstarter) and \@ref(kickstarter-blurbs). This data contains short text blurbs for prospective crowdfunding campaigns and whether those campaigns were successful. Our modeling goal is to predict whether a Kickstarter crowdfunding campaign was successful or not, based on the text blurb describing the campaign. Let's start by splitting our data into training and testing sets.


```r
library(tidyverse)

kickstarter <- read_csv("data/kickstarter.csv.gz")
kickstarter
```

```
#> # A tibble: 269,790 x 3
#>    blurb                                                        state created_at
#>    <chr>                                                        <dbl> <date>    
#>  1 Exploring paint and its place in a digital world.                0 2015-03-17
#>  2 Mike Fassio wants a side-by-side photo of me and Hazel eati…     0 2014-07-11
#>  3 I need your help to get a nice graphics tablet and Photosho…     0 2014-07-30
#>  4 I want to create a Nature Photograph Series of photos of wi…     0 2015-05-08
#>  5 I want to bring colour to the world in my own artistic skil…     0 2015-02-01
#>  6 We start from some lovely pictures made by us and we decide…     0 2015-11-18
#>  7 Help me raise money to get a drawing tablet                      0 2015-04-03
#>  8 I would like to share my art with the world and to do that …     0 2014-10-15
#>  9 Post Card don’t set out to simply decorate stories. Our goa…     0 2015-06-25
#> 10 My name is Siu Lon Liu and I am an illustrator seeking fund…     0 2014-07-19
#> # … with 269,780 more rows
```
…
