…
<div class="rmdnote">
<p>We are using the <code>"adam"</code> optimizer since it performs well for many kinds of models. You may have to experiment to find the optimizer that works best for your model and data.</p>
</div>

Now that the model is done fitting, we can evaluate it on the validation data set using the same `keras_predict()` function we created in Section \@ref(evaluate-dnn) and used throughout Chapters \@ref(dldnn) and \@ref(dllstm).


```r
val_res <- keras_predict(simple_cnn_model, kick_assess, state_assess)
val_res
```

```
#> # A tibble: 50,522 x 3
#>         .pred_1 .pred_class state
#>           <dbl> <fct>       <fct>
#>  1 0.0000000589 0           0    
#>  2 0.000144     0           0    
#>  3 0.000190     0           0    
#>  4 0.00929      0           0    
#>  5 0.00752      0           0    
#>  6 0.995        1           0    
#>  7 0.000563     0           0    
#>  8 0.0000185    0           0    
#>  9 0.00538      0           0    
#> 10 0.000931     0           0    
#> # … with 50,512 more rows
```
…
This model also performs well compared to earlier results. Let us extract the the prediction using `keras_predict()` we defined in \@ref(evaluate-dnn).


```r
all_cnn_model_predictions <- bind_rows(
  mutate(val_res, model = "Basic CNN"),
  mutate(val_res_double_dense, model = "Double Dense"),
  mutate(val_res_double_conv, model = "Double Conv")
)

all_cnn_model_predictions
```

```
#> # A tibble: 151,566 x 4
#>         .pred_1 .pred_class state model    
#>           <dbl> <fct>       <fct> <chr>    
#>  1 0.0000000589 0           0     Basic CNN
#>  2 0.000144     0           0     Basic CNN
#>  3 0.000190     0           0     Basic CNN
#>  4 0.00929      0           0     Basic CNN
#>  5 0.00752      0           0     Basic CNN
#>  6 0.995        1           0     Basic CNN
#>  7 0.000563     0           0     Basic CNN
#>  8 0.0000185    0           0     Basic CNN
#>  9 0.00538      0           0     Basic CNN
#> 10 0.000931     0           0     Basic CNN
#> # … with 151,556 more rows
```
…
We can use `map()` to try a handful of different vocabulary sizes


```r
bpe_token_dist <- map_dfr(
  c(2500, 5000, 10000, 20000),
  get_bpe_token_dist,
  kickstarter_train$blurb
)
bpe_token_dist
```

```
#> # A tibble: 808,372 x 2
#>    n_tokens vocab_size
#>       <int>      <dbl>
#>  1        9       2500
#>  2       35       2500
#>  3       27       2500
#>  4       32       2500
#>  5       22       2500
#>  6       45       2500
#>  7       35       2500
#>  8       29       2500
#>  9       39       2500
#> 10       33       2500
#> # … with 808,362 more rows
```
…
```r
explanation <- explain(
  x = sentence_to_explain,
  explainer = explainer,
  n_labels = 1,
  n_features = 12
)

explanation
```

```
#> # A tibble: 21 x 13
#>    model_type    case label label_prob model_r2 model_intercept model_prediction
#>  * <chr>        <int> <chr>      <dbl>    <dbl>           <dbl>            <dbl>
#>  1 classificat…     1 1          0.990    0.220           0.789            0.995
#>  2 classificat…     1 1          0.990    0.220           0.789            0.995
#>  3 classificat…     1 1          0.990    0.220           0.789            0.995
#>  4 classificat…     1 1          0.990    0.220           0.789            0.995
#>  5 classificat…     1 1          0.990    0.220           0.789            0.995
#>  6 classificat…     1 1          0.990    0.220           0.789            0.995
#>  7 classificat…     1 1          0.990    0.220           0.789            0.995
#>  8 classificat…     1 1          0.990    0.220           0.789            0.995
#>  9 classificat…     1 1          0.990    0.220           0.789            0.995
#> 10 classificat…     2 1          1.00     0.494           0.373            0.965
#> # … with 11 more rows, and 6 more variables: feature <chr>,
#> #   feature_value <chr>, feature_weight <dbl>, feature_desc <chr>, data <chr>,
#> #   prediction <list>
```
…
runs_results <- as_tibble(ls_runs())
```

You don't have to, but we have manually specified the `runs_dir` argument, which is where the results of the tuning will be saved.

A summary of all the runs in the folder can be retrieved with `ls_runs()`; here we use `as_tibble()` to get the results as a tibble.


```r
runs_results
```

```
#> # A tibble: 72 x 28
#>    run_dir             eval_ eval_loss eval_accuracy metric_loss metric_accuracy
#>    <chr>               <dbl>     <dbl>         <dbl>       <dbl>           <dbl>
#>  1 _tuning/2021-03-30… 1.01         NA            NA      0.0336           0.993
#>  2 _tuning/2021-03-30… 1.00         NA            NA      0.0376           0.992
#>  3 _tuning/2021-03-30… 0.991        NA            NA      0.0466           0.988
#>  4 _tuning/2021-03-30… 0.971        NA            NA      0.0288           0.995
#>  5 _tuning/2021-03-30… 0.981        NA            NA      0.0324           0.993
#>  6 _tuning/2021-03-30… 0.961        NA            NA      0.0409           0.990
#>  7 _tuning/2021-03-30… 1.03         NA            NA      0.0339           0.992
#>  8 _tuning/2021-03-30… 0.994        NA            NA      0.0374           0.992
#>  9 _tuning/2021-03-30… 0.996        NA            NA      0.0477           0.987
#> 10 _tuning/2021-03-30… 0.954        NA            NA      0.0311           0.994
#> # … with 62 more rows, and 22 more variables: metric_val_loss <dbl>,
#> #   metric_val_accuracy <dbl>, flag_kernel_size1 <int>, flag_strides1 <int>,
#> #   samples <int>, batch_size <int>, epochs <int>, epochs_completed <int>,
#> #   metrics <chr>, model <chr>, loss_function <chr>, optimizer <chr>,
#> #   learning_rate <dbl>, script <chr>, start <dttm>, end <dttm>,
#> #   completed <lgl>, output <chr>, source_code <chr>, context <chr>,
#> #   type <chr>, NA. <dbl>
```

We can condense the results down a little bit by only pulling out the flags we are looking at and arranging them according to their performance.


```r
best_runs <- runs_results %>%
  select(metric_val_accuracy, flag_kernel_size1, flag_strides1) %>%
  arrange(desc(metric_val_accuracy))

best_runs
```

```
#> # A tibble: 72 x 3
#>    metric_val_accuracy flag_kernel_size1 flag_strides1
#>                  <dbl>             <int>         <int>
#>  1               0.814                 5             1
#>  2               0.813                 7             1
#>  3               0.812                 5             1
#>  4               0.812                 5             1
#>  5               0.812                 5             1
#>  6               0.812                 5             1
#>  7               0.812                 5             1
#>  8               0.812                 5             1
#>  9               0.812                 3             1
#> 10               0.812                 7             1
#> # … with 62 more rows
```
…
