C Baseline linear classifier | Supervised Machine Learning for Text Analysis in R
…
C Baseline linear classifier

In Chapters 8, 9, and 10 we demonstrate in detail how to train and evaluate different kinds of deep learning classifiers for the Kickstarter data set of campaign blurbs and whether each campaign was successful or not. This Appendix shows a baseline linear classification model for this data set using machine learning techniques like those used in Chapters 6 and 7. It serves the purpose of comparison with the deep learning techniques, and also as a succinct summary of a basic supervised machine learning analysis for text.

This machine learning analysis is presented with only minimal narrative; see Chapters 6 and 7 for more explanation and details.

C.1 Read in the data

library(tidyverse)
kickstarter <- read_csv("data/kickstarter.csv.gz") %>%
  mutate(state = as.factor(state))

kickstarter

#> # A tibble: 269,790 x 3
#>    blurb                                                        state created_at
#>    <chr>                                                        <fct> <date>    
#>  1 Exploring paint and its place in a digital world.            0     2015-03-17
#>  2 Mike Fassio wants a side-by-side photo of me and Hazel eati… 0     2014-07-11
#>  3 I need your help to get a nice graphics tablet and Photosho… 0     2014-07-30
#>  4 I want to create a Nature Photograph Series of photos of wi… 0     2015-05-08
#>  5 I want to bring colour to the world in my own artistic skil… 0     2015-02-01
#>  6 We start from some lovely pictures made by us and we decide… 0     2015-11-18
#>  7 Help me raise money to get a drawing tablet                  0     2015-04-03
#>  8 I would like to share my art with the world and to do that … 0     2014-10-15
#>  9 Post Card don’t set out to simply decorate stories. Our goa… 0     2015-06-25
#> 10 My name is Siu Lon Liu and I am an illustrator seeking fund… 0     2014-07-19
#> # … with 269,780 more rows
…
