Chapter 5 Word Embeddings | Supervised Machine Learning for Text Analysis in R
…
We can determine these vectors for a corpus of text using word counts and matrix factorization, as outlined by Moody (2017). This approach is valuable because it allows practitioners to find word vectors for their own collections of text (with no need to rely on pre-trained vectors) using familiar techniques that are not difficult to understand. Let’s walk through how to do this using tidy data principles and sparse matrices, on the data set of CFPB complaints. First, let’s filter out words that are used only rarely in this data set and create a nested dataframe, with one row per complaint.

tidy_complaints <- complaints %>%
  select(complaint_id, consumer_complaint_narrative) %>%
  unnest_tokens(word, consumer_complaint_narrative) %>%
  add_count(word) %>%
  filter(n >= 50) %>%
  select(-n)

nested_words <- tidy_complaints %>%
  nest(words = c(word))

nested_words

#> # A tibble: 117,170 × 2
#>    complaint_id words             
#>           <dbl> <list>            
#>  1      3384392 <tibble [18 × 1]> 
#>  2      3417821 <tibble [71 × 1]> 
#>  3      3433198 <tibble [77 × 1]> 
#>  4      3366475 <tibble [69 × 1]> 
#>  5      3385399 <tibble [213 × 1]>
#>  6      3444592 <tibble [19 × 1]> 
#>  7      3379924 <tibble [121 × 1]>
#>  8      3446975 <tibble [22 × 1]> 
#>  9      3214857 <tibble [64 × 1]> 
#> 10      3417374 <tibble [44 × 1]> 
#> # … with 117,160 more rows
…
library(widyr)
library(furrr)

plan(multisession)  ## for parallel processing

tidy_pmi <- nested_words %>%
  mutate(words = future_map(words, slide_windows, 4L)) %>%
  unnest(words) %>%
  unite(window_id, complaint_id, window_id) %>%
  pairwise_pmi(word, window_id)

tidy_pmi

#> # A tibble: 4,818,402 × 3
#>    item1   item2           pmi
#>    <chr>   <chr>         <dbl>
#>  1 systems transworld  7.09   
#>  2 inc     transworld  5.96   
#>  3 is      transworld -0.135  
#>  4 trying  transworld -0.107  
#>  5 to      transworld -0.00206
#>  6 collect transworld  1.07   
#>  7 a       transworld -0.516  
#>  8 debt    transworld  0.919  
#>  9 that    transworld -0.542  
#> 10 not     transworld -1.17   
#> # … with 4,818,392 more rows
…
We can next determine the word vectors from the PMI values using singular value decomposition (SVD).
SVD is a method for dimensionality reduction via matrix factorization (Golub and Reinsch 1970) that works by taking our data and decomposing it onto special orthogonal axes. The first axis is chosen to capture as much of the variance as possible. Keeping that first axis fixed, the remaining orthogonal axes are rotated to maximize the variance in the second. This is repeated for all the remaining axes.

In our application, we will use SVD to factor the PMI matrix into a set of smaller matrices containing the word embeddings with a size we get to choose. The embedding size is typically chosen to be in the low hundreds. Thus we get a matrix of dimension (n_vocabulary * n_dim) instead of dimension (n_vocabulary * n_vocabulary), which can be a vast reduction in size for large vocabularies.
Let’s use the widely_svd() function in widyr (Robinson 2020), creating 100-dimensional word embeddings. This matrix factorization is much faster than the previous step of identifying the skipgram windows and calculating PMI.

tidy_word_vectors <- tidy_pmi %>%
  widely_svd(
    item1, item2, pmi,
    nv = 100, maxit = 1000
  )

tidy_word_vectors

#> # A tibble: 747,500 × 3
#>    item1   dimension   value
#>    <chr>       <int>   <dbl>
#>  1 systems         1 0.0165 
#>  2 inc             1 0.0191 
#>  3 is              1 0.0202 
#>  4 trying          1 0.0423 
#>  5 to              1 0.00904
#>  6 collect         1 0.0370 
#>  7 a               1 0.0126 
#>  8 debt            1 0.0430 
#>  9 that            1 0.0136 
#> 10 not             1 0.0213 
#> # … with 747,490 more rows
…
        matrix(res, ncol = 1, dimnames = list(x = names(res)))
      },
      sort = TRUE
    )(item1, dimension, value) %>%
    select(-item2)
}

This function takes the tidy word embeddings as input, along with a word (or token, more strictly) as a string. It uses matrix multiplication and sums to calculate the cosine similarity between the word and all the words in the embedding to find which words are closer or farther to the input word, and returns a dataframe sorted by similarity.

What words are closest to "error" in the data set of CFPB complaints, as determined by our word embeddings?

tidy_word_vectors %>%
  nearest_neighbors("error")

#> # A tibble: 7,475 × 2
#>    item1            value
#>    <chr>            <dbl>
#>  1 error            1    
#>  2 mistake          0.683
#>  3 clerical         0.627
#>  4 problem          0.582
#>  5 glitch           0.580
#>  6 errors           0.571
#>  7 miscommunication 0.512
#>  8 misunderstanding 0.486
#>  9 issue            0.478
#> 10 discrepancy      0.474
#> # … with 7,465 more rows

Mistakes, problems, glitches – sounds bad!

What is closest to the word "month"?

tidy_word_vectors %>%
  nearest_neighbors("month")

#> # A tibble: 7,475 × 2
#>    item1        value
#>    <chr>        <dbl>
#>  1 month        1    
#>  2 year         0.607
#>  3 months       0.593
#>  4 monthly      0.454
#>  5 installments 0.446
#>  6 payment      0.429
#>  7 week         0.406
#>  8 weeks        0.400
#>  9 85.00        0.399
#> 10 bill         0.396
#> # … with 7,465 more rows

We see words about installments and payments, along with other time periods such as years and weeks. Notice that we did not stem this text data (see Chapter 4), but the word embeddings learned that “month,” “months,” and “monthly” belong together.

What words are closest in this embedding space to "fee"?

tidy_word_vectors %>%
  nearest_neighbors("fee")

#> # A tibble: 7,475 × 2
#>    item1     value
#>    <chr>     <dbl>
#>  1 fee       1    
#>  2 fees      0.746
#>  3 overdraft 0.678
#>  4 12.00     0.675
#>  5 14.00     0.645
#>  6 37.00     0.632
#>  7 charge    0.630
#>  8 11.00     0.630
#>  9 36.00     0.627
#> 10 28.00     0.624
#> # … with 7,465 more rows

We find a lot of dollar amounts, which makes sense. Let us filter out the numbers to see what non-dollar words are similar to “fee.”

tidy_word_vectors %>%
  nearest_neighbors("fee") %>%
  filter(str_detect(item1, "[0-9]*.[0-9]{2}", negate = TRUE))

#> # A tibble: 7,047 × 2
#>    item1     value
#>    <chr>     <dbl>
#>  1 fee       1    
#>  2 fees      0.746
#>  3 overdraft 0.678
#>  4 charge    0.630
#>  5 nsf       0.609
#>  6 charged   0.594
#>  7 od        0.552
#>  8 waived    0.547
#>  9 assessed  0.538
#> 10 charges   0.530
#> # … with 7,037 more rows
…
5.4 Use pre-trained word embeddings

If your data set is too small, you typically cannot train reliable word embeddings.

How small is too small? It is hard to make definitive statements because being able to determine useful word embeddings depends on the semantic and pragmatic details of how words are used in any given data set. However, it may be unreasonable to expect good results with data sets smaller than about a million words or tokens. (Here, we do not mean about a million unique tokens, i.e., the vocabulary size, but instead about that many observations in the text data.)

In such situations, we can still use word embeddings for feature creation in modeling, just not embeddings that we determine ourselves from our own data set. Instead, we can turn to pre-trained word embeddings, such as the GloVe word vectors trained on six billion tokens from Wikipedia and news sources. Several pre-trained GloVe vector representations are available in R via the textdata package (Hvitfeldt 2020b). Let’s use dimensions = 100, since we trained 100-dimensional word embeddings in the previous section.

library(textdata)

glove6b <- embedding_glove6b(dimensions = 100)
glove6b

#> # A tibble: 400,000 × 101
#>    token      d1      d2      d3      d4      d5      d6      d7      d8      d9
#>    <chr>   <dbl>   <dbl>   <dbl>   <dbl>   <dbl>   <dbl>   <dbl>   <dbl>   <dbl>
#>  1 "the" -0.0382 -0.245   0.728  -0.400   0.0832  0.0440 -0.391   0.334  -0.575 
#>  2 ","   -0.108   0.111   0.598  -0.544   0.674   0.107   0.0389  0.355   0.0635
#>  3 "."   -0.340   0.209   0.463  -0.648  -0.384   0.0380  0.171   0.160   0.466 
#>  4 "of"  -0.153  -0.243   0.898   0.170   0.535   0.488  -0.588  -0.180  -1.36  
#>  5 "to"  -0.190   0.0500  0.191  -0.0492 -0.0897  0.210  -0.550   0.0984 -0.201 
#>  6 "and" -0.0720  0.231   0.0237 -0.506   0.339   0.196  -0.329   0.184  -0.181 
#>  7 "in"   0.0857 -0.222   0.166   0.134   0.382   0.354   0.0129  0.225  -0.438 
#>  8 "a"   -0.271   0.0440 -0.0203 -0.174   0.644   0.712   0.355   0.471  -0.296 
#>  9 "\""  -0.305  -0.236   0.176  -0.729  -0.283  -0.256   0.266   0.0253 -0.0748
#> 10 "'s"   0.589  -0.202   0.735  -0.683  -0.197  -0.180  -0.392   0.342  -0.606 
#> # … with 399,990 more rows, and 91 more variables: d10 <dbl>, d11 <dbl>,
#> #   d12 <dbl>, d13 <dbl>, d14 <dbl>, d15 <dbl>, d16 <dbl>, d17 <dbl>,
#> #   d18 <dbl>, …

We can transform these word embeddings into a more tidy format, using pivot_longer() from tidyr. Let’s also give this tidied version the same column names as tidy_word_vectors, for convenience.

tidy_glove <- glove6b %>%
  pivot_longer(contains("d"),
               names_to = "dimension") %>%
  rename(item1 = token)

tidy_glove

#> # A tibble: 40,000,000 × 3
#>    item1 dimension   value
#>    <chr> <chr>       <dbl>
#>  1 the   d1        -0.0382
#>  2 the   d2        -0.245 
#>  3 the   d3         0.728 
#>  4 the   d4        -0.400 
#>  5 the   d5         0.0832
#>  6 the   d6         0.0440
#>  7 the   d7        -0.391 
#>  8 the   d8         0.334 
#>  9 the   d9        -0.575 
#> 10 the   d10        0.0875
#> # … with 39,999,990 more rows
…
Pre-trained word embeddings are trained on very large, general purpose English language data sets. Commonly used word2vec embeddings are based on the Google News data set, and  GloVe embeddings (what we are using here) and FastText embeddings are learned from the text of Wikipedia plus other sources. Keeping that in mind, what words are closest to "error" in the GloVe embeddings?

tidy_glove %>%
  nearest_neighbors("error")

#> # A tibble: 400,000 × 2
#>    item1       value
#>    <chr>       <dbl>
#>  1 error       1    
#>  2 errors      0.792
#>  3 mistake     0.664
#>  4 correct     0.621
#>  5 incorrect   0.613
#>  6 fault       0.607
#>  7 difference  0.594
#>  8 mistakes    0.586
#>  9 calculation 0.584
#> 10 probability 0.583
#> # … with 399,990 more rows

Instead of the more specific clerical mistakes and discrepancies in the CFPB embeddings, we now see more general words about being correct or incorrect. This could present a challenge for using the GloVe embeddings with the CFPB text data. Remember that different senses or uses of the same word are conflated in word embeddings; the high-dimensional space of any set of word embeddings cannot distinguish between different uses of a word, such as the word “error.”

What is closest to the word "month" in these pre-trained GloVe embeddings?

tidy_glove %>%
  nearest_neighbors("month")

#> # A tibble: 400,000 × 2
#>    item1    value
#>    <chr>    <dbl>
#>  1 month    1    
#>  2 week     0.939
#>  3 last     0.924
#>  4 months   0.898
#>  5 year     0.893
#>  6 weeks    0.865
#>  7 earlier  0.859
#>  8 tuesday  0.846
#>  9 ago      0.844
#> 10 thursday 0.841
#> # … with 399,990 more rows

Instead of words about payments, the GloVe results here focus on different time periods only.

What words are closest in the GloVe embedding space to "fee"?

tidy_glove %>%
  nearest_neighbors("fee")

#> # A tibble: 400,000 × 2
#>    item1        value
#>    <chr>        <dbl>
#>  1 fee          1    
#>  2 fees         0.832
#>  3 payment      0.741
#>  4 pay          0.711
#>  5 salary       0.700
#>  6 paid         0.668
#>  7 payments     0.653
#>  8 subscription 0.647
#>  9 paying       0.623
#> 10 expenses     0.619
#> # … with 399,990 more rows
…
