…
In the previous chapter, we focused on using modeling to predict *labels* on documents, such as what kind of financial product a CFPB complaint was discussing. These are examples of classification models. We can also use machine learning to predict *continuous values* that are associated with documents. For example, let's consider a sample of opinions from the United States Supreme Court, available in the **scotus** [@R-scotus] package.


```r
library(tidyverse)
library(scotus)

scotus_sample %>%
  as_tibble()
```

```
## # A tibble: 6,336 x 5
##    year  case_name                  docket_number     id text                   
##    <chr> <chr>                      <chr>          <dbl> <chr>                  
##  1 2002  Martinez-Garduno, AKA Gar… 02-5021       107750 "No. 02-5021.\nCERTIOR…
##  2 2002  Dinkins v. Cockrell, Dire… 02-5107       107820 "No. 02-5107.\nCERTIOR…
##  3 2002  Young v. Stubblefield, Su… 02-6152       108930 "No. 02-6152.\nCERTIOR…
##  4 1918  Cox v. Wood                833            83544 "No. 833.\nMr. Hannis …
##  5 1994  Withrow v. Williams        93-807        100733 "No. 93-807.\nAppeal f…
##  6 2000  United States v. Johnson   98-1696       102702 "UNITED STATESv.JOHNSO…
##  7 2005  Breton-Pichardo v. United… 04-8495       127464 "No. 04-8495.\nC. A. 4…
##  8 2004  Johnson v. Illinois        03-9984       121824 "No. 03-9984.\nApp. Ct…
##  9 1928  Security Mortgage Co. v. … 32             85729 "No. 32.\n[Syllabus fr…
## 10 1918  Salt Lake Investment Co. … 29             83523 "No. 29.\nMessrs. W. H…
## # … with 6,326 more rows
```
…
We have successfully fit a regularized regression model to this dataset of Supreme Court opinions. What does the result look like? We can access the fit using `pull_workflow_fit()`, and even `tidy()` the results into a convenient dataframe format.


```r
lasso_fit %>%
  pull_workflow_fit() %>%
  tidy()
```

```
## # A tibble: 20,343 x 5
##    term            step estimate lambda dev.ratio
##    <chr>          <dbl>    <dbl>  <dbl>     <dbl>
##  1 (Intercept)        1 1963.      39.3    0     
##  2 (Intercept)        2 1963.      35.8    0.0986
##  3 tfidf_text_it      2   -3.34    35.8    0.0986
##  4 tfidf_text_was     2   -0.214   35.8    0.0986
##  5 (Intercept)        3 1963.      32.6    0.194 
##  6 tfidf_text_by      3   -0.214   32.6    0.194 
##  7 tfidf_text_it      3   -5.09    32.6    0.194 
##  8 tfidf_text_was     3   -2.01    32.6    0.194 
##  9 (Intercept)        4 1963.      29.7    0.278 
## 10 tfidf_text_by      4   -1.50    29.7    0.278 
## # … with 20,333 more rows
```
…
<div class="rmdnote">
<p>Think of <code>tune()</code> here as a placeholder for the regularization penalty.</p>
</div>

We can create a regular grid of values to try, using a convenience function for `penalty()`.


```r
lambda_grid <- grid_regular(penalty(), levels = 30)

lambda_grid
```

```
## # A tibble: 30 x 1
##     penalty
##       <dbl>
##  1 1.00e-10
##  2 2.21e-10
##  3 4.89e-10
##  4 1.08e- 9
##  5 2.40e- 9
##  6 5.30e- 9
##  7 1.17e- 8
##  8 2.59e- 8
##  9 5.74e- 8
## 10 1.27e- 7
## # … with 20 more rows
```
…
Now, instead of one set of metrics, we have a set of metrics for each value of the regularization penalty.


```r
tune_rs %>%
  collect_metrics()
```

```
## # A tibble: 60 x 7
##     penalty .metric .estimator   mean     n std_err .config
##       <dbl> <chr>   <chr>       <dbl> <int>   <dbl> <chr>  
##  1 1.00e-10 rmse    standard   16.5      10 0.558   Model01
##  2 1.00e-10 rsq     standard    0.901    10 0.00637 Model01
##  3 2.21e-10 rmse    standard   16.5      10 0.558   Model02
##  4 2.21e-10 rsq     standard    0.901    10 0.00637 Model02
##  5 4.89e-10 rmse    standard   16.5      10 0.558   Model03
##  6 4.89e-10 rsq     standard    0.901    10 0.00637 Model03
##  7 1.08e- 9 rmse    standard   16.5      10 0.558   Model04
##  8 1.08e- 9 rsq     standard    0.901    10 0.00637 Model04
##  9 2.40e- 9 rmse    standard   16.5      10 0.558   Model05
## 10 2.40e- 9 rsq     standard    0.901    10 0.00637 Model05
## # … with 50 more rows
```
…
After fitting models for each of possible regularization values to each of the cross-validation folds, these sets of results contain metrics computed for removing that set of stop words.


```r
collect_metrics(smart_rs)
```

```
## # A tibble: 40 x 7
##      penalty .metric .estimator   mean     n std_err .config
##        <dbl> <chr>   <chr>       <dbl> <int>   <dbl> <chr>  
##  1 0.00001   rmse    standard   16.3      10 0.559   Model01
##  2 0.00001   rsq     standard    0.904    10 0.00602 Model01
##  3 0.0000183 rmse    standard   16.3      10 0.559   Model02
##  4 0.0000183 rsq     standard    0.904    10 0.00602 Model02
##  5 0.0000336 rmse    standard   16.3      10 0.559   Model03
##  6 0.0000336 rsq     standard    0.904    10 0.00602 Model03
##  7 0.0000616 rmse    standard   16.3      10 0.559   Model04
##  8 0.0000616 rsq     standard    0.904    10 0.00602 Model04
##  9 0.000113  rmse    standard   16.3      10 0.559   Model05
## 10 0.000113  rsq     standard    0.904    10 0.00602 Model05
## # … with 30 more rows
```
…
set.seed(345)
trigram_rs <- tune_ngram(list(n = 3, n_min = 1))
```

These sets of results contain metrics computed for the model with that tokenization strategy.


```r
collect_metrics(bigram_rs)
```

```
## # A tibble: 40 x 7
##      penalty .metric .estimator   mean     n std_err .config
##        <dbl> <chr>   <chr>       <dbl> <int>   <dbl> <chr>  
##  1 0.00001   rmse    standard   15.6      10 0.418   Model01
##  2 0.00001   rsq     standard    0.912    10 0.00426 Model01
##  3 0.0000183 rmse    standard   15.6      10 0.418   Model02
##  4 0.0000183 rsq     standard    0.912    10 0.00426 Model02
##  5 0.0000336 rmse    standard   15.6      10 0.418   Model03
##  6 0.0000336 rsq     standard    0.912    10 0.00426 Model03
##  7 0.0000616 rmse    standard   15.6      10 0.418   Model04
##  8 0.0000616 rsq     standard    0.912    10 0.00426 Model04
##  9 0.000113  rmse    standard   15.6      10 0.418   Model05
## 10 0.000113  rsq     standard    0.912    10 0.00426 Model05
## # … with 30 more rows
```
…
```r
final_grid <- grid_regular(
  penalty(range = c(-4, 0)),
  max_tokens(range = c(500, 5000)),
  levels = 7
)


final_grid
```

```
## # A tibble: 49 x 2
##     penalty max_tokens
##       <dbl>      <int>
##  1 0.0001          500
##  2 0.000464        500
##  3 0.00215         500
##  4 0.01            500
##  5 0.0464          500
##  6 0.215           500
##  7 1               500
##  8 0.0001         1250
##  9 0.000464       1250
## 10 0.00215        1250
## # … with 39 more rows
```
…
