Chapter 7 Classification | Supervised Machine Learning for Text Analysis in R
…
After the tuning process, we can select a single best numeric value.

Think of tune() here as a placeholder for the regularization penalty.

We can create a regular grid of values to try, using a convenience function for penalty().

lambda_grid <- grid_regular(penalty(), levels = 30)
lambda_grid

#> # A tibble: 30 × 1
#>     penalty
#>       <dbl>
#>  1 1   e-10
#>  2 2.21e-10
#>  3 4.89e-10
#>  4 1.08e- 9
#>  5 2.40e- 9
#>  6 5.30e- 9
#>  7 1.17e- 8
#>  8 2.59e- 8
#>  9 5.74e- 8
#> 10 1.27e- 7
#> # … with 20 more rows
…
Like when we used fit_resamples(), tuning in tidymodels can use multiple cores or multiple machines via parallel processing, because the resampled data sets and possible parameters are independent of each other. A discussion of parallel processing for all possible operating systems is beyond the scope of this book, but it is well worth your time to learn how to parallelize your machine learning tasks on your system.

Now, instead of one set of metrics, we have a set of metrics for each value of the regularization penalty.

collect_metrics(tune_rs)

#> # A tibble: 60 × 7
#>     penalty .metric  .estimator  mean     n  std_err .config              
#>       <dbl> <chr>    <chr>      <dbl> <int>    <dbl> <chr>                
#>  1 1   e-10 accuracy binary     0.890    10 0.000834 Preprocessor1_Model01
#>  2 1   e-10 roc_auc  binary     0.953    10 0.000517 Preprocessor1_Model01
#>  3 2.21e-10 accuracy binary     0.890    10 0.000834 Preprocessor1_Model02
#>  4 2.21e-10 roc_auc  binary     0.953    10 0.000517 Preprocessor1_Model02
#>  5 4.89e-10 accuracy binary     0.890    10 0.000834 Preprocessor1_Model03
#>  6 4.89e-10 roc_auc  binary     0.953    10 0.000517 Preprocessor1_Model03
#>  7 1.08e- 9 accuracy binary     0.890    10 0.000834 Preprocessor1_Model04
#>  8 1.08e- 9 roc_auc  binary     0.953    10 0.000517 Preprocessor1_Model04
#>  9 2.40e- 9 accuracy binary     0.890    10 0.000834 Preprocessor1_Model05
#> 10 2.40e- 9 roc_auc  binary     0.953    10 0.000517 Preprocessor1_Model05
#> # … with 50 more rows
…
Instead of penalty = tune() like before, now our workflow has finalized values for all arguments. The preprocessing recipe has been evaluated on the training data, and we tuned the regularization penalty so that we have a penalty value of 0.00079. This workflow is ready to go! It can now be fit to our training data.

fitted_lasso <- fit(final_lasso, complaints_train)

What does the result look like? We can access the fit using extract_fit_parsnip(), and even tidy() the model coefficient results into a convenient dataframe format.

fitted_lasso %>%
  extract_fit_parsnip() %>%
  tidy() %>%
  arrange(-estimate)

#> # A tibble: 1,001 × 3
#>    term                                         estimate  penalty
#>    <chr>                                           <dbl>    <dbl>
#>  1 tfidf_consumer_complaint_narrative_funds         27.6 0.000788
#>  2 tfidf_consumer_complaint_narrative_appraisal     22.9 0.000788
#>  3 tfidf_consumer_complaint_narrative_escrow        21.0 0.000788
#>  4 tfidf_consumer_complaint_narrative_bonus         20.7 0.000788
#>  5 tfidf_consumer_complaint_narrative_debt          18.5 0.000788
#>  6 tfidf_consumer_complaint_narrative_emailed       16.4 0.000788
#>  7 tfidf_consumer_complaint_narrative_money         16.1 0.000788
#>  8 tfidf_consumer_complaint_narrative_interest      15.7 0.000788
#>  9 tfidf_consumer_complaint_narrative_afford        15.5 0.000788
#> 10 tfidf_consumer_complaint_narrative_merchant      14.9 0.000788
#> # … with 991 more rows

We see here, for the penalty we chose, what terms contribute the most to a complaint not being about credit. The words are largely about mortgages and other financial products.

What terms contribute to a complaint being about credit reporting, for this tuned model? Here we see the names of the credit reporting agencies and words about credit inquiries.

fitted_lasso %>%
  extract_fit_parsnip() %>%
  tidy() %>%
  arrange(estimate)

#> # A tibble: 1,001 × 3
#>    term                                          estimate  penalty
#>    <chr>                                            <dbl>    <dbl>
#>  1 tfidf_consumer_complaint_narrative_reseller      -90.9 0.000788
#>  2 tfidf_consumer_complaint_narrative_experian      -56.9 0.000788
#>  3 tfidf_consumer_complaint_narrative_transunion    -50.1 0.000788
#>  4 tfidf_consumer_complaint_narrative_equifax       -48.1 0.000788
#>  5 tfidf_consumer_complaint_narrative_compliant     -23.7 0.000788
#>  6 tfidf_consumer_complaint_narrative_reporting     -21.1 0.000788
#>  7 tfidf_consumer_complaint_narrative_freeze        -20.9 0.000788
#>  8 tfidf_consumer_complaint_narrative_inquiries     -19.0 0.000788
#>  9 tfidf_consumer_complaint_narrative_report        -18.6 0.000788
#> 10 tfidf_consumer_complaint_narrative_method        -16.3 0.000788
#> # … with 991 more rows
…
We see here that including more predictors did not measurably improve our model performance or even change the regularization. With only text features in Section 7.5 and the same grid and sparse encoding, we achieved an accuracy of 0.953, the same as what we see now by including the features dealing with dates and tags as well. The best regularization penalty in Section 7.5 was 0.0007 and is about the same here. We can use tidy() and some dplyr manipulation to find at what rank (term_rank) any of the date or tag variables were included in the regularized results, by absolute value of the model coefficient.

finalize_workflow(more_vars_wf, 
                  select_best(more_vars_rs, "roc_auc")) %>%
  fit(complaints_train) %>%
  extract_fit_parsnip() %>%
  tidy() %>% 
  arrange(-abs(estimate)) %>% 
  mutate(term_rank = row_number()) %>% 
  filter(!str_detect(term, "tfidf"))

#> # A tibble: 21 × 4
#>    term                    estimate  penalty term_rank
#>    <chr>                      <dbl>    <dbl>     <int>
#>  1 (Intercept)              0.326   0.000695       701
#>  2 date_received_month_Dec -0.271   0.000695       716
#>  3 date_received_month_Aug -0.105   0.000695       746
#>  4 date_received_dow_Mon    0.102   0.000695       748
#>  5 date_received_month_Apr  0.0763  0.000695       756
#>  6 date_received_month_Feb -0.0547  0.000695       761
#>  7 tags_Servicemember      -0.0426  0.000695       765
#>  8 date_received_dow_Tue    0.0329  0.000695       766
#>  9 date_received_dow_Fri    0.0147  0.000695       770
#> 10 date_received_month_May  0.00337 0.000695       774
#> # … with 11 more rows
…
Before we tune the model, we need to set up a set of possible parameter values to try.

There are two tunable parameters in this model, the regularization parameter and the maximum number of tokens included in the model.

Let’s include different possible values for each parameter, for a combination of 60 models.

final_grid <- grid_regular(
  penalty(range = c(-4, 0)),
  max_tokens(range = c(1e3, 3e3)),
  levels = c(penalty = 20, max_tokens = 3)
)

final_grid

#> # A tibble: 60 × 2
#>     penalty max_tokens
#>       <dbl>      <int>
#>  1 0.0001         1000
#>  2 0.000162       1000
#>  3 0.000264       1000
#>  4 0.000428       1000
#>  5 0.000695       1000
#>  6 0.00113        1000
#>  7 0.00183        1000
#>  8 0.00298        1000
#>  9 0.00483        1000
#> 10 0.00785        1000
#> # … with 50 more rows
…
