Chapter 6 Regression | Supervised Machine Learning for Text Analysis in R
…
            Supervised Machine Learning for Text Analysis in R

Chapter 6 Regression

In this chapter, we will use machine learning to predict continuous values that are associated with text data. Like in all predictive modeling tasks, this chapter demonstrates how to use learning algorithms to find and model relationships between an outcome or target variable and other input features. What is unique about the focus of this book is that our features are created from text data following the techniques laid out in Chapters 1 through 5, and what is unique about the focus of this particular chapter is that our outcome is numeric and continuous. For example, let’s consider a sample of opinions from the United States Supreme Court, available in the scotus (Hvitfeldt 2019b) package.

library(tidyverse)
library(scotus)

scotus_filtered %>%
  as_tibble()

#> # A tibble: 10,000 x 5
#>    year  case_name                  docket_number     id text                   
#>    <chr> <chr>                      <chr>          <dbl> <chr>                  
#>  1 1903  Clara Perry, Plff. In Err… 16             80304 "No. 16.\n State Repor…
#>  2 1987  West v. Conrail            85-1804        96216 "No. 85-1804.\n\n     …
#>  3 1957  Roth v. United States      582            89930 "Nos. 582, 61.\nNo. 61…
#>  4 1913  McDermott v. Wisconsin     Nos. 112 and … 82218 "Nos. 112 and 113.\nMr…
#>  5 1826  Wetzell v. Bussard         <NA>           52899 "Feb. 7th.\nThis cause…
#>  6 1900  Forsyth v. Vehmeyer        180            79609 "No. 180.\nMr. Edward …
#>  7 1871  Reed v. United States      <NA>           57846 "APPEAL and cross appe…
#>  8 1833  United States v. Mills     <NA>           53394 "CERTIFICATE of Divisi…
#>  9 1940  Puerto Rico v. Rubert Her… 582            87714 "No. 582.\nMr. Wm. Cat…
#> 10 1910  Williams v. First Nat. Ba… 130            81588 "No. 130.\nThe defenda…
#> # … with 9,990 more rows
…
Everything is now ready for us to fit our model. Let’s add our model to the workflow with add_model() and fit to our training data scotus_train.

svm_fit <- scotus_wf %>%
  add_model(svm_spec) %>%
  fit(data = scotus_train)

We have successfully fit an SVM model to this data set of Supreme Court opinions. What does the result look like? We can access the fit using pull_workflow_fit(), and even tidy() the model coefficient results into a convenient dataframe format.

svm_fit %>%
  pull_workflow_fit() %>%
  tidy() %>%
  arrange(-estimate)

#> # A tibble: 1,001 x 2
#>    term                  estimate
#>    <chr>                    <dbl>
#>  1 Bias                   1920.  
#>  2 tfidf_text_appeals        1.48
#>  3 tfidf_text_see            1.45
#>  4 tfidf_text_later          1.36
#>  5 tfidf_text_even           1.33
#>  6 tfidf_text_example        1.30
#>  7 tfidf_text_noted          1.25
#>  8 tfidf_text_petitioner     1.25
#>  9 tfidf_text_based          1.25
#> 10 tfidf_text_relevant       1.20
#> # … with 991 more rows

The term Bias here means the same thing as an intercept. We see here what terms contribute to a Supreme Court opinion being written more recently, like “appeals” and “petitioner.”

What terms contribute to a Supreme Court opinion being written further in the past, for this first attempt at a model?

svm_fit %>%
  pull_workflow_fit() %>%
  tidy() %>%
  arrange(estimate)

#> # A tibble: 1,001 x 2
#>    term             estimate
#>    <chr>               <dbl>
#>  1 tfidf_text_1st      -1.79
#>  2 tfidf_text_but      -1.73
#>  3 tfidf_text_the      -1.62
#>  4 tfidf_text_same     -1.55
#>  5 tfidf_text_it       -1.44
#>  6 tfidf_text_this     -1.43
#>  7 tfidf_text_cause    -1.41
#>  8 tfidf_text_bound    -1.37
#>  9 tfidf_text_be       -1.36
#> 10 tfidf_text_been     -1.35
#> # … with 991 more rows
…
FIGURE 6.8: Predicted and true years from a linear SVM regression model with bigrams and unigrams

Finally, we can gain more insight into our model and how it is behaving by looking at observations from the test set that have been mispredicted. Let’s bind together the predictions on the test set with the original Supreme Court opinion test data and filter to observations with a prediction that is more than 25 years wrong.

scotus_bind <- collect_predictions(final_fitted) %>%
  bind_cols(scotus_test %>% select(-year, -id)) %>%
  filter(abs(year - .pred) > 25)

There isn’t too much training data to start with for the earliest years, so we are unlikely to quickly gain insight from looking at the oldest opinions. However, what do the more recent opinions that were predicted inaccurately look like?

scotus_bind %>%
  arrange(-year) %>%
  select(year, .pred, case_name, text)

#> # A tibble: 137 x 4
#>     year .pred case_name                       text                             
#>    <dbl> <dbl> <chr>                           <chr>                            
#>  1  2008 1982. Sprint Communications Co. v. A… "Supreme Court of United States.…
#>  2  2004 1978. BedRoc Limited, LLC v. United … "No. 02-1593.\nThe Pittman Under…
#>  3  2004 1978. Sosa v. Alvarez-Machain         "No. 03-339.\nThe Drug Enforceme…
#>  4  2002 1954. JPMorgan Chase Bank v. Traffic… "No. 01-651.\nCERTIORARI TO THE …
#>  5  1996 2021. Bank One Chicago, NA v. Midwes… "No. 94-1175.\n\n        Syllabu…
#>  6  1995 1959. Johnny Paul Penry v. Texas. No… "Justice SCALIA, Circuit Justice…
#>  7  1993 1964. Tennessee v. Middlebrooks       "No. 92-989.\nCERTIORARI TO THE …
#>  8  1992 2021. Martin v. District of Columbia… "Nos. 92-5584, 92-5618.\nReheari…
#>  9  1992 1966. INS v. Elias-Zacarias           "No. 90-1342.\n\n        Syllabu…
#> 10  1992 1966. Republic Nat. Bank of Miami v.… "No. 91-767.\nSyllabus*\nThe Gov…
#> # … with 127 more rows
…
