…
nested_words <- tidy_complaints %>%
  nest(words = c(word))

nested_words
```

```
## # A tibble: 117,170 x 2
##    complaint_id words             
##           <dbl> <list>            
##  1      3384392 <tibble [18 x 1]> 
##  2      3417821 <tibble [71 x 1]> 
##  3      3433198 <tibble [77 x 1]> 
##  4      3366475 <tibble [69 x 1]> 
##  5      3385399 <tibble [213 x 1]>
##  6      3444592 <tibble [19 x 1]> 
##  7      3379924 <tibble [121 x 1]>
##  8      3446975 <tibble [22 x 1]> 
##  9      3214857 <tibble [64 x 1]> 
## 10      3417374 <tibble [44 x 1]> 
## # ... with 117,160 more rows
```
…
tidy_pmi <- nested_words %>%
  mutate(words = future_map(words, slide_windows, 4,
    .progress = TRUE
  )) %>%
  unnest(words) %>%
  unite(window_id, complaint_id, window_id) %>%
  pairwise_pmi(word, window_id)

tidy_pmi
```


```
## # A tibble: 4,818,402 x 3
##    item1   item2           pmi
##    <chr>   <chr>         <dbl>
##  1 systems transworld  7.09   
##  2 inc     transworld  5.96   
##  3 is      transworld -0.135  
##  4 trying  transworld -0.107  
##  5 to      transworld -0.00206
##  6 collect transworld  1.07   
##  7 a       transworld -0.516  
##  8 debt    transworld  0.919  
##  9 that    transworld -0.542  
## 10 not     transworld -1.17   
## # ... with 4,818,392 more rows
```
…
We can next determine the word vectors from the PMI values using singular value decomposition. Let's use the `widely_svd()` function in **widyr**, creating 100-dimensional word embeddings. This matrix factorization is much faster than the previous step of identifying the skipgram windows and calculating PMI.


```r
tidy_word_vectors <- tidy_pmi %>%
  widely_svd(
    item1, item2, pmi,
    nv = 100, maxit = 1000
  )

tidy_word_vectors
```

```
## # A tibble: 747,500 x 3
##    item1   dimension   value
##    <chr>       <int>   <dbl>
##  1 systems         1 0.0165 
##  2 inc             1 0.0191 
##  3 is              1 0.0202 
##  4 trying          1 0.0423 
##  5 to              1 0.00904
##  6 collect         1 0.0370 
##  7 a               1 0.0126 
##  8 debt            1 0.0430 
##  9 that            1 0.0136 
## 10 not             1 0.0213 
## # ... with 747,490 more rows
```
…
This function takes the tidy word embeddings as input, along with a word (or token, more strictly) as a string. It uses matrix multiplication to find which words are closer or farther to the input word, and returns a dataframe sorted by similarity.

What words are closest to `"error"` in the dataset of CFPB complaints, as determined by our word embeddings?


```r
tidy_word_vectors %>%
  nearest_neighbors("error")
```

```
## # A tibble: 7,475 x 2
##    item1      value
##    <chr>      <dbl>
##  1 error     0.0373
##  2 issue     0.0236
##  3 problem   0.0235
##  4 issues    0.0194
##  5 errors    0.0187
##  6 mistake   0.0185
##  7 system    0.0170
##  8 problems  0.0151
##  9 late      0.0141
## 10 situation 0.0138
## # ... with 7,465 more rows
```

Errors, problems, issues, mistakes -- sounds bad!

What is closest to the word `"month"`?


```r
tidy_word_vectors %>%
  nearest_neighbors("month")
```

```
## # A tibble: 7,475 x 2
##    item1     value
##    <chr>     <dbl>
##  1 month    0.0597
##  2 payment  0.0408
##  3 months   0.0355
##  4 payments 0.0325
##  5 year     0.0314
##  6 days     0.0275
##  7 balance  0.0267
##  8 xx       0.0265
##  9 years    0.0262
## 10 monthly  0.0260
## # ... with 7,465 more rows
```

We see words about payments, along with other time periods such as days and years. Notice that we did not stem this text data (see Chapter \@ref(stemming)) but the word embeddings learned that singular and plural forms of words belong together.

What words are closest in this embedding space to `"fee"`?


```r
tidy_word_vectors %>%
  nearest_neighbors("fee")
```

```
## # A tibble: 7,475 x 2
##    item1      value
##    <chr>      <dbl>
##  1 fee       0.0762
##  2 fees      0.0605
##  3 charge    0.0421
##  4 interest  0.0410
##  5 charged   0.0387
##  6 late      0.0377
##  7 charges   0.0366
##  8 overdraft 0.0327
##  9 charging  0.0245
## 10 month     0.0220
## # ... with 7,465 more rows
```
…
In such situations, we can still use word embeddings for feature creation in modeling, just not embeddings that we determine ourselves from our own dataset. Instead, we can turn to **pre-trained** word embeddings, such as the GloVe word vectors trained on six billion tokens from Wikipedia and news sources. Several pre-trained GloVe vector representations are available in R via the [textdata](https://cran.r-project.org/package=textdata) package [@Hvitfeldt2020]. Let's use `dimensions = 100`, since we trained 100-dimensional word embeddings in the previous section.


```r
library(textdata)

glove6b <- embedding_glove6b(dimensions = 100)
glove6b
```


```
## # A tibble: 400,000 x 101
##    token      d1      d2      d3      d4      d5      d6      d7      d8      d9
##    <chr>   <dbl>   <dbl>   <dbl>   <dbl>   <dbl>   <dbl>   <dbl>   <dbl>   <dbl>
##  1 "the" -0.0382 -0.245   0.728  -0.400   0.0832  0.0440 -0.391   0.334  -0.575 
##  2 ","   -0.108   0.111   0.598  -0.544   0.674   0.107   0.0389  0.355   0.0635
##  3 "."   -0.340   0.209   0.463  -0.648  -0.384   0.0380  0.171   0.160   0.466 
##  4 "of"  -0.153  -0.243   0.898   0.170   0.535   0.488  -0.588  -0.180  -1.36  
##  5 "to"  -0.190   0.0500  0.191  -0.0492 -0.0897  0.210  -0.550   0.0984 -0.201 
##  6 "and" -0.0720  0.231   0.0237 -0.506   0.339   0.196  -0.329   0.184  -0.181 
##  7 "in"   0.0857 -0.222   0.166   0.134   0.382   0.354   0.0129  0.225  -0.438 
##  8 "a"   -0.271   0.0440 -0.0203 -0.174   0.644   0.712   0.355   0.471  -0.296 
##  9 "\""  -0.305  -0.236   0.176  -0.729  -0.283  -0.256   0.266   0.0253 -0.0748
## 10 "'s"   0.589  -0.202   0.735  -0.683  -0.197  -0.180  -0.392   0.342  -0.606 
## # ... with 399,990 more rows, and 91 more variables: d10 <dbl>, d11 <dbl>,
## #   d12 <dbl>, d13 <dbl>, d14 <dbl>, d15 <dbl>, d16 <dbl>, d17 <dbl>,
## #   d18 <dbl>, d19 <dbl>, d20 <dbl>, d21 <dbl>, d22 <dbl>, d23 <dbl>,
## #   d24 <dbl>, d25 <dbl>, d26 <dbl>, d27 <dbl>, d28 <dbl>, d29 <dbl>,
## #   d30 <dbl>, d31 <dbl>, d32 <dbl>, d33 <dbl>, d34 <dbl>, d35 <dbl>,
## #   d36 <dbl>, d37 <dbl>, d38 <dbl>, d39 <dbl>, d40 <dbl>, d41 <dbl>,
## #   d42 <dbl>, d43 <dbl>, d44 <dbl>, d45 <dbl>, d46 <dbl>, d47 <dbl>,
## #   d48 <dbl>, d49 <dbl>, d50 <dbl>, d51 <dbl>, d52 <dbl>, d53 <dbl>,
## #   d54 <dbl>, d55 <dbl>, d56 <dbl>, d57 <dbl>, d58 <dbl>, d59 <dbl>,
…
We can transform these word embeddings into a more tidy format, using `pivot_longer()` from tidyr. Let's also give this tidied version the same column names as `tidy_word_vectors`, for convenience.


```r
tidy_glove <- glove6b %>%
  pivot_longer(contains("d"),
    names_to = "dimension"
  ) %>%
  rename(item1 = token)

tidy_glove
```

```
## # A tibble: 40,000,000 x 3
##    item1 dimension   value
##    <chr> <chr>       <dbl>
##  1 the   d1        -0.0382
##  2 the   d2        -0.245 
##  3 the   d3         0.728 
##  4 the   d4        -0.400 
##  5 the   d5         0.0832
##  6 the   d6         0.0440
##  7 the   d7        -0.391 
##  8 the   d8         0.334 
##  9 the   d9        -0.575 
## 10 the   d10        0.0875
## # ... with 39,999,990 more rows
```
…
Pre-trained word embeddings are trained based on very large, general purpose English language datasets. Commonly used [word2vec embeddings](https://code.google.com/archive/p/word2vec/) are based on the Google News dataset, and commonly used [GloVe embeddings](https://nlp.stanford.edu/projects/glove/) (what we are using here) and [FastText embeddings](https://fasttext.cc/docs/en/english-vectors.html) are learned from the text of Wikipedia plus other sources. Keeping that in mind, what words are closest to `"error"` in the GloVe embeddings?


```r
tidy_glove %>%
  nearest_neighbors("error")
```

```
## # A tibble: 400,000 x 2
##    item1       value
##    <chr>       <dbl>
##  1 error        34.6
##  2 errors       28.1
##  3 data         19.8
##  4 inning       19.4
##  5 game         19.3
##  6 percentage   19.3
##  7 probability  19.2
##  8 unforced     19.1
##  9 fault        19.1
## 10 point        19.0
## # ... with 399,990 more rows
```

Instead of problems and mistakes like in the CFPB embeddings, we now see words related to sports, especially baseball, where an error is a certain kind of act recorded in statistics. This could present a challenge for using the GloVe embeddings with the CFPB text data.

What is closest to the word `"month"` in these pre-trained GloVe embeddings?


```r
tidy_glove %>%
  nearest_neighbors("month")
```

```
## # A tibble: 400,000 x 2
##    item1     value
##    <chr>     <dbl>
##  1 month      32.4
##  2 year       31.2
##  3 last       30.6
##  4 week       30.5
##  5 wednesday  29.6
##  6 tuesday    29.5
##  7 monday     29.3
##  8 thursday   29.1
##  9 percent    28.9
## 10 friday     28.9
## # ... with 399,990 more rows
```

Instead of words about payments, the GloVe results here focus on different time periods only.

What words are closest in the GloVe embedding space to `"fee"`?


```r
tidy_glove %>%
  nearest_neighbors("fee")
```

```
## # A tibble: 400,000 x 2
##    item1        value
##    <chr>        <dbl>
##  1 fee           39.8
##  2 fees          30.7
##  3 pay           26.6
##  4 $             26.4
##  5 salary        25.9
##  6 payment       25.9
##  7 £             25.4
##  8 tax           24.9
##  9 payments      23.8
## 10 subscription  23.1
## # ... with 399,990 more rows
```
…
